{
    "articles": [
        {
            "name": "Daily Digest",
            "sectionArticles": [
                {
                    "endPage": "D552",
                    "startPage": "D551",
                    "text": [
                        {
                            "type": "Formatted Text",
                            "url": "https://www.congress.gov/119/crec/2026/05/22/172/88/modified/CREC-2026-05-22-pt1-PgD551-6.htm"
                        },
                        {
                            "type": "PDF",
                            "url": "https://www.congress.gov/119/crec/2026/05/22/172/88/CREC-2026-05-22-pt1-PgD551-6.pdf"
                        }
                    ],
                    "title": "Daily Digest/Next Meeting of the SENATE + Next Meeting of the HOUSE OF REPRESENTATIVES + Other End Matter; Congressional Record Vol. 172, No. 88"
                },
                {
                    "endPage": "D551",
                    "startPage": "D551",
                    "text": [
                        {
                            "type": "Formatted Text",
                            "url": "https://www.congress.gov/119/crec/2026/05/22/172/88/modified/CREC-2026-05-22-pt1-PgD551-5.htm"
                        },
                        {
                            "type": "PDF",
                            "url": "https://www.congress.gov/119/crec/2026/05/22/172/88/CREC-2026-05-22-pt1-PgD551-5.pdf"
                        }
                    ],
                    "title": "Daily Digest/COMMITTEE MEETINGS FOR 2026-05-26; Congressional Record Vol. 172, No. 88"
                },
                {
                    "endPage": "D551",
                    "startPage": "D551",
                    "text": [
                        {
                            "type": "Formatted Text",
                            "url": "https://www.congress.gov/119/crec/2026/05/22/172/88/modified/CREC-2026-05-22-pt1-PgD551-4.htm"
                        },
                        {
                            "type": "PDF",
                            "url": "https://www.congress.gov/119/crec/2026/05/22/172/88/CREC-2026-05-22-pt1-PgD551-4.pdf"
                        }
                    ],
                    "title": "Daily Digest/House Committee Meetings; Congressional Record Vol. 172, No. 88"
                },
                {
                    "endPage": "D551",
                    "startPage": "D551",
                    "text": [
                        {
                            "type": "Formatted Text",
                            "url": "https://www.congress.gov/119/crec/2026/05/22/172/88/modified/CREC-2026-05-22-pt1-PgD551-3.htm"
                        },
                        {
                            "type": "PDF",
                            "url": "https://www.congress.gov/119/crec/2026/05/22/172/88/CREC-2026-05-22-pt1-PgD551-3.pdf"
                        }
                    ],
                    "title": "Daily Digest/House of Representatives; Congressional Record Vol. 172, No. 88"
                },
                {
                    "endPage": "D551",
                    "startPage": "D551",
                    "text": [
                        {
                            "type": "Formatted Text",
                            "url": "https://www.congress.gov/119/crec/2026/05/22/172/88/modified/CREC-2026-05-22-pt1-PgD551-2.htm"
                        },
                        {
                            "type": "PDF",
                            "url": "https://www.congress.gov/119/crec/2026/05/22/172/88/CREC-2026-05-22-pt1-PgD551-2.pdf"
                        }
                    ],
                    "title": "Daily Digest/Senate Committee Meetings; Congressional Record Vol. 172, No. 88"
                },
                {
                    "endPage": "D551",
                    "startPage": "D551",
                    "text": [
                        {
                            "type": "Formatted Text",
                            "url": "https://www.congress.gov/119/crec/2026/05/22/172/88/modified/CREC-2026-05-22-pt1-PgD551.htm"
                        },
                        {
                            "type": "PDF",
                            "url": "https://www.congress.gov/119/crec/2026/05/22/172/88/CREC-2026-05-22-pt1-PgD551.pdf"
                        }
                    ],
                    "title": "Daily Digest/Senate; Congressional Record Vol. 172, No. 88"
                }
            ]
        },
        {
            "name": "Extensions of Remarks Section",
            "sectionArticles": [
                {
                    "endPage": "E485",
                    "startPage": "E485",
                    "text": [
                        {
                            "type": "Formatted Text",
                            "url": "https://www.congress.gov/119/crec/2026/05/22/172/88/modified/CREC-2026-05-22-pt1-PgE485-4.htm"
                        },
                        {
                            "type": "PDF",
                            "url": "https://www.congress.gov/119/crec/2026/05/22/172/88/CREC-2026-05-22-pt1-PgE485-4.pdf"
                        }
                    ],
                    "title": "INTRODUCTION OF THE FIREWORKS TRAFFICKING AND MONEY LAUNDERING PREVENTION ACT; Congressional Record Vol. 172, No. 88"
                },
                {
                    "endPage": "E485",
                    "startPage": "E485",
                    "text": [
                        {
                            "type": "Formatted Text",
                            "url": "https://www.congress.gov/119/crec/2026/05/22/172/88/modified/CREC-2026-05-22-pt1-PgE485-3.htm"
                        },
                        {
                            "type": "PDF",
                            "url": "https://www.congress.gov/119/crec/2026/05/22/172/88/CREC-2026-05-22-pt1-PgE485-3.pdf"
                        }
                    ],
                    "title": "RECOGNIZING RITA FORRESTER, A HEART STONE OF OUR CULTURE; Congressional Record Vol. 172, No. 88"
                },
                {
                    "endPage": "E485",
                    "startPage": "E485",
                    "text": [
                        {
                            "type": "Formatted Text",
                            "url": "https://www.congress.gov/119/crec/2026/05/22/172/88/modified/CREC-2026-05-22-pt1-PgE485-2.htm"
                        },
                        {
                            "type": "PDF",
                            "url": "https://www.congress.gov/119/crec/2026/05/22/172/88/CREC-2026-05-22-pt1-PgE485-2.pdf"
                        }
                    ],
                    "title": "COMMEMORATING THE WORLD'S OLDEST PURPOSE-BUILT MOVIE THEATER; Congressional Record Vol. 172, No. 88"
                }
            ]
        },
        {
            "name": "House Section",
            "sectionArticles": [
                {
                    "endPage": "H3731",
                    "startPage": "H3731",
                    "text": [
                        {
                            "type": "Formatted Text",
                            "url": "https://www.congress.gov/119/crec/2026/05/22/172/88/modified/CREC-2026-05-22-pt1-PgH3731-3.htm"
                        },
                        {
                            "type": "PDF",
                            "url": "https://www.congress.gov/119/crec/2026/05/22/172/88/CREC-2026-05-22-pt1-PgH3731-3.pdf"
                        }
                    ],
                    "title": "DISCHARGE PETITIONS-- ADDITIONS AND WITHDRAWALS; Congressional Record Vol. 172, No. 88"
                },
                {
                    "endPage": "H3731",
                    "startPage": "H3731",
                    "text": [
                        {
                            "type": "Formatted Text",
                            "url": "https://www.congress.gov/119/crec/2026/05/22/172/88/modified/CREC-2026-05-22-pt1-PgH3731-2.htm"
                        },
                        {
                            "type": "PDF",
                            "url": "https://www.congress.gov/119/crec/2026/05/22/172/88/CREC-2026-05-22-pt1-PgH3731-2.pdf"
                        }
                    ],
                    "title": "DISCHARGE PETITIONS; Congressional Record Vol. 172, No. 88"
                },
                {
                    "endPage": "H3731",
                    "startPage": "H3731",
                    "text": [
                        {
                            "type": "Formatted Text",
                            "url": "https://www.congress.gov/119/crec/2026/05/22/172/88/modified/CREC-2026-05-22-pt1-PgH3731.htm"
                        },
                        {
                            "type": "PDF",
                            "url": "https://www.congress.gov/119/crec/2026/05/22/172/88/CREC-2026-05-22-pt1-PgH3731.pdf"
                        }
                    ],
                    "title": "ADDITIONAL SPONSORS; Congressional Record Vol. 172, No. 88"
                },
                {
                    "endPage": "H3731",
                    "startPage": "H3730",
                    "text": [
                        {
                            "type": "Formatted Text",
                            "url": "https://www.congress.gov/119/crec/2026/05/22/172/88/modified/CREC-2026-05-22-pt1-PgH3730-2.htm"
                        },
                        {
                            "type": "PDF",
                            "url": "https://www.congress.gov/119/crec/2026/05/22/172/88/CREC-2026-05-22-pt1-PgH3730-2.pdf"
                        }
                    ],
                    "title": "PUBLIC BILLS AND RESOLUTIONS; Congressional Record Vol. 172, No. 88"
                },
                {
                    "endPage": "H3730",
                    "startPage": "H3730",
                    "text": [
                        {
                            "type": "Formatted Text",
                            "url": "https://www.congress.gov/119/crec/2026/05/22/172/88/modified/CREC-2026-05-22-pt1-PgH3730.htm"
                        },
                        {
                            "type": "PDF",
                            "url": "https://www.congress.gov/119/crec/2026/05/22/172/88/CREC-2026-05-22-pt1-PgH3730.pdf"
                        }
                    ],
                    "title": "REPORTS OF COMMITTEES ON PUBLIC BILLS AND RESOLUTIONS; Congressional Record Vol. 172, No. 88"
                },
                {
                    "endPage": "H3730",
                    "startPage": "H3729",
                    "text": [
                        {
                            "type": "PDF",
                            "url": "https://www.congress.gov/119/crec/2026/05/22/172/88/CREC-2026-05-22-pt1-PgH3729-7.pdf"
                        },
                        {
                            "type": "Formatted Text",
                            "url": "https://www.congress.gov/119/crec/2026/05/22/172/88/modified/CREC-2026-05-22-pt1-PgH3729-7.htm"
                        }
                    ],
                    "title": "EXECUTIVE COMMUNICATIONS, ETC.; Congressional Record Vol. 172, No. 88"
                },
                {
                    "endPage": "H3729",
                    "startPage": "H3729",
                    "text": [
                        {
                            "type": "Formatted Text",
                            "url": "https://www.congress.gov/119/crec/2026/05/22/172/88/modified/CREC-2026-05-22-pt1-PgH3729-6.htm"
                        },
                        {
                            "type": "PDF",
                            "url": "https://www.congress.gov/119/crec/2026/05/22/172/88/CREC-2026-05-22-pt1-PgH3729-6.pdf"
                        }
                    ],
                    "title": "ADJOURNMENT; Congressional Record Vol. 172, No. 88"
                },
                {
                    "endPage": "H3729",
                    "startPage": "H3729",
                    "text": [
                        {
                            "type": "Formatted Text",
                            "url": "https://www.congress.gov/119/crec/2026/05/22/172/88/modified/CREC-2026-05-22-pt1-PgH3729-5.htm"
                        },
                        {
                            "type": "PDF",
                            "url": "https://www.congress.gov/119/crec/2026/05/22/172/88/CREC-2026-05-22-pt1-PgH3729-5.pdf"
                        }
                    ],
                    "title": "PLEDGE OF ALLEGIANCE; Congressional Record Vol. 172, No. 88"
                },
                {
                    "endPage": "H3729",
                    "startPage": "H3729",
                    "text": [
                        {
                            "type": "Formatted Text",
                            "url": "https://www.congress.gov/119/crec/2026/05/22/172/88/modified/CREC-2026-05-22-pt1-PgH3729-4.htm"
                        },
                        {
                            "type": "PDF",
                            "url": "https://www.congress.gov/119/crec/2026/05/22/172/88/CREC-2026-05-22-pt1-PgH3729-4.pdf"
                        }
                    ],
                    "title": "THE JOURNAL; Congressional Record Vol. 172, No. 88"
                },
                {
                    "endPage": "H3729",
                    "startPage": "H3729",
                    "text": [
                        {
                            "type": "Formatted Text",
                            "url": "https://www.congress.gov/119/crec/2026/05/22/172/88/modified/CREC-2026-05-22-pt1-PgH3729-3.htm"
                        },
                        {
                            "type": "PDF",
                            "url": "https://www.congress.gov/119/crec/2026/05/22/172/88/CREC-2026-05-22-pt1-PgH3729-3.pdf"
                        }
                    ],
                    "title": "PRAYER; Congressional Record Vol. 172, No. 88"
                },
                {
                    "endPage": "H3729",
                    "startPage": "H3729",
                    "text": [
                        {
                            "type": "Formatted Text",
                            "url": "https://www.congress.gov/119/crec/2026/05/22/172/88/modified/CREC-2026-05-22-pt1-PgH3729-2.htm"
                        },
                        {
                            "type": "PDF",
                            "url": "https://www.congress.gov/119/crec/2026/05/22/172/88/CREC-2026-05-22-pt1-PgH3729-2.pdf"
                        }
                    ],
                    "title": "DESIGNATION OF THE SPEAKER PRO TEMPORE; Congressional Record Vol. 172, No. 88"
                }
            ]
        }
    ],
    "pagination": {
        "count": 24,
        "next": "https://api.congress.gov/v3/daily-congressional-record/172/88/articles?offset=20&limit=20&format=json"
    },
    "request": {
        "contentType": "application/json",
        "format": "json",
        "issueNumber": "88",
        "volumeNumber": "172"
    }
}
